{
  "migIndex": 1,
  "data": [
    {
      "path": "Asset/font/ShantellSans-Bold.ttf",
      "sha1": "2aa50c1687d153dfb6c672708f07535afa106143"
    },
    {
      "path": "Asset/font/ShantellSans-BoldItalic.ttf",
      "sha1": "bbc28b915a8db0c7c4ad5ac41d9d2c09f19a9045"
    },
    {
      "path": "Asset/font/ShantellSans-ExtraBold.ttf",
      "sha1": "fe376c41c66591e1f9a1fdc2c9e49b6a95842906"
    },
    {
      "path": "Asset/font/ShantellSans-ExtraBoldItalic.ttf",
      "sha1": "5dce9decdd96b7c0c1851d4afa3569130eb6f3cd"
    },
    {
      "path": "Asset/font/ShantellSans-Italic.ttf",
      "sha1": "8209921584c844208d1432e678277f79f03cae01"
    },
    {
      "path": "Asset/font/ShantellSans-Light.ttf",
      "sha1": "bd83d2206e7732d1e68e2e634cbdb2a87f144d9c"
    },
    {
      "path": "Asset/font/ShantellSans-LightItalic.ttf",
      "sha1": "c7115fe69af68425f070ee37fcb84c4f8e72861d"
    },
    {
      "path": "Asset/font/ShantellSans-Medium.ttf",
      "sha1": "3deb3df26da982cf593cd1935f94c55d2e214a70"
    },
    {
      "path": "Asset/font/ShantellSans-MediumItalic.ttf",
      "sha1": "1d8be797b250b879c094111bcc2eb2cc16908440"
    },
    {
      "path": "Asset/font/ShantellSans-Regular.ttf",
      "sha1": "ca6290d3746be892304a90269fd2434040c1859e"
    },
    {
      "path": "Asset/font/ShantellSans-SemiBold.ttf",
      "sha1": "2444e80d30298c105bda7dd0019b16b7e2766f7a"
    },
    {
      "path": "Asset/font/ShantellSans-SemiBoldItalic.ttf",
      "sha1": "f1a501f70a2ea81f6d87527659d4c96698c0ab36"
    }
  ]
}
